[Main]
FileType=CIR
Version=12.00
Program=Micro-Cap
Component Version=10.00
Shape Version=11.00
Screen=1366,768
MCAPVersion=12.0.2.1
Key ID=Demo
NLCnt=154
TXCnt=21

[shapedef]
Name=139
Block=0,8,56,72,0,8
BlockLine="Line",-16,16
BlockLine="Line",-16,32
BlockLine="None",-16,48
BlockLine="Inv",-16,64
BlockLine="Inv",72,16
BlockLine="Inv",72,32
BlockLine="Inv",72,48
BlockLine="Inv",72,64
FColor=None

[shapedef]
Name=LedAnim
Led=-8,-8,8,8
Line=0,8,0,24

[shapedef]
Name=Nand2
Root="Nand.root",0,0,0

[shapedef]
Name=Nand.root
Line=0,0,8,0
Line=8,20,8,-4
Line=0,16,8,16
Line=25,20,8,20
Line=8,-4,25,-4
Ellipse=40,6,44,10
FColor=None
Line=44,8,48,8
Arc=11,-4,40,20 , 25,24,24,-6

[shapedef]
Name=STIM4
Root="Stim.root",0,0,0
Line=64,-8,72,-8
Line=64,0,72,0
Line=64,8,72,8
Line=64,16,72,16
Rectangle=54,-10,58,-6
FColor=None

[shapedef]
Name=Stim.root
Rectangle=0,-16,64,24
FColor=None
Line=8,8,16,8
Line=16,8,16,0
Line=16,0,24,0
Line=24,0,24,8
Line=24,8,32,8
Line=32,8,32,0
Line=32,0,48,0
Line=48,0,48,8
Line=48,8,56,8

[shapedef]
Name=StimClock
Arc=50,-8,62,8 , 56,8,62,0
Arc=50,-8,62,8 , 62,0,56,-8
Line=13,8,57,8
Arc=8,-8,18,8 , 13,-8,8,0
Ellipse=53,-3,59,3
Line=64,0,72,0
Arc=8,-8,18,8 , 8,0,13,8
Line=13,-8,57,-8
Line=56,0,64,0
Line=16,4,20,4
Line=20,4,20,-4
Line=20,-4,24,-4
Line=24,-4,24,4
Line=24,4,28,4
Line=28,4,28,-4
Line=28,-4,32,-4
Line=32,-4,32,4
Line=32,4,36,4
Line=36,4,36,-4
Line=36,-4,40,-4
Line=40,-4,40,4
Line=40,4,44,4
Line=44,4,44,-4
Line=44,-4,48,-4
Line=48,-4,48,4
Line=48,4,52,4

[compdef]
Name=Stim4
Definition=STIM
Shape=STIM4
Mask=5120
Used=3
Data2=4
memo=4-Bit Digital Stimulus
Label Offset=4,25,19,16
PinCnt=4
Pin="Out3",9,-1,7,2
Pin="Out2",9,0,7,4
Pin="Out1",9,1,7,5
Pin="Out0",9,2,7,7

[compdef]
Name=DClock
Definition=Macro
Shape=StimClock
Mask=4096
Used=20
memo=Digital Clock Stimulus Macro
Link=http://www.spectrum-soft.com/news/fall2003/dclock.shtm
Label Offset=29,10,12,21
PinCnt=1
Pin="Out",d,9,0

[compdef]
Name=74HC139
Definition=Subckt
Shape=139
Mask=20608
Used=8
memo=Dual 2-Line To 4-Line Decoder/Demultiplexer
Label Offset=29,72,-4,22
PinCnt=7
Pin="1A",d,-2,2,19,7
Pin="1B",d,-2,4,19,7
Pin="1GB",d,-2,8,19,7
Pin="1Y0",d,9,2,-37,7
Pin="1Y1",d,9,4,-37,7
Pin="1Y2",d,9,6,-37,7
Pin="1Y3",d,9,8,-37,7

[compdef]
Name=Nand2
Definition=NAND
Shape=Nand2
Mask=5123
Used=49
Data1=2
memo=2 Input Generic NAND Gate
Label Offset=14,4,8,9
PinCnt=3
Pin="In0",0,0,-8,-2
Pin="In1",0,2,-8,-1
Pin="Out",6,1,-9,-1

[compdef]
Name=Animated Digital LED
Definition=DIGITAL LED
Shape=LedAnim
Mask=4096
Used=47
memo=Animated Digital LED
Label Offset=11,-14,11,-13
PinCnt=1
Pin="In",0,3,5,0

[Circuit]
Window Placement=2,3, -1,-1, -8,-31, 0,0,1005,333
Default Object=Color=#000080
Default Object Font=Height=-15,FStyle=0,Color=#000080,Name=Arial
Default Object Apply Border To Text=No
Default Object Apply Fill To Text=No
Default Object GridSnap=No
NodeVoltageFormat=3
CurrentFormat=3
PowerFormat=3
PathDelayFormat=3
WarningFormat=3
GridTextFormulaFormat=3
Window Placement in Transient Analysis=2,3, -1,-1, -8,-31, 26,26,1227,359
SpiceType=AMBIGUOUS
Title_Block_Border=None
Title_Block=False
Show Nodes=False
Show Voltages=False
Show Current=False
Show Power=False
Show Condition=False
Show Pin Connections=False
Show Connection Warnings=False
Show Cross=False
Show Attribute Text=True
Show Grid Text=True

[Comp]
Name=Stim4
Px=40,104
Rot=4

[Attr]
ON=4,-39,PART
V=U1
Style=8192

[Attr]
ON=4,-53,FORMAT
V=4

[Attr]
ON=4,-64,COMMAND
V=REPEAT7

[Attr]
ON=4,-64,I/O MODEL
V=IO_STD

[Attr]
ON=4,-64,TIMESTEP
V=0

[Attr]
ON=4,-64,IO_LEVEL
V=0

[Attr]
ON=4,-64,POWER NODE
V=$G_DPWR

[Attr]
ON=4,-64,GROUND NODE
V=$G_DGND

[Attr]
ON=0,0,PACKAGE
V

[Comp]
Name=DClock
Px=32,176

[Attr]
ON=29,10,PART
V=X1
Style=8192

[Attr]
ON=29,24,FILE
V=DClock

[Attr]
ON=29,52,Param:ZEROWIDTH
V=0.5u

[Attr]
ON=29,66,Param:ONEWIDTH
V=0.5u

[Attr]
ON=0,0,PACKAGE
V

[Comp]
Name=74HC139
Style=ShowPinText
Px=208,72

[Attr]
ON=29,72,PART
V=X2
Style=8192

[Attr]
ON=29,86,NAME
V=74HC139

[Attr]
ON=29,114,PACKAGE
V=DIP16

[Attr]
ON=29,128,GATE
V=A

[Attr]
ON=29,142,COMPNAME
V=UX2

[Comp]
Name=74HC139
Style=ShowPinText
Px=208,176

[Attr]
ON=29,72,PART
V=X3
Style=8192

[Attr]
ON=29,86,NAME
V=74HC139

[Attr]
ON=29,114,PACKAGE
V=DIP16

[Attr]
ON=29,128,GATE
V=A

[Attr]
ON=29,142,COMPNAME
V=UX2

[Wire]
Pxs=104,136,192,136

[Wire]
Pxs=104,136,104,176

[Wire]
Pxs=104,176,104,240

[Wire]
Pxs=104,240,192,240

[Wire]
Pxs=112,88,168,88

[Wire]
Pxs=112,96,144,96

[Wire]
Pxs=192,96,192,104

[Wire]
Pxs=112,104,144,104

[Wire]
Pxs=144,104,144,176

[Wire]
Pxs=144,192,192,192

[Wire]
Pxs=112,112,112,208

[Wire]
Pxs=112,208,120,208

[Wire]
Pxs=168,88,192,88

[Wire]
Pxs=144,176,144,192

[Wire]
Pxs=120,208,192,208

[Wire]
Pxs=280,88,368,88

[Comp]
Name=Nand2
Px=376,64
Rot=4

[Attr]
ON=14,-18,PART
V=U2
Style=8192

[Attr]
ON=14,-32,TIMING MODEL
V=D0_GATE

[Attr]
ON=14,-46,I/O MODEL
V=IO_STD

[Attr]
ON=14,-60,MNTYMXDLY
V=0

[Attr]
ON=14,-64,IO_LEVEL
V=0

[Attr]
ON=14,-64,POWER NODE
V=$G_DPWR

[Attr]
ON=14,-64,GROUND NODE
V=$G_DGND

[Attr]
ON=0,0,PACKAGE
V

[Wire]
Pxs=368,64,376,64

[Wire]
Pxs=368,64,368,88

[Comp]
Name=Nand2
Px=376,120
Rot=4

[Attr]
ON=14,-18,PART
V=U37
Style=8192

[Attr]
ON=14,-32,TIMING MODEL
V=D0_GATE

[Attr]
ON=14,-46,I/O MODEL
V=IO_STD

[Attr]
ON=14,-60,MNTYMXDLY
V=0

[Attr]
ON=14,-64,IO_LEVEL
V=0

[Attr]
ON=14,-64,POWER NODE
V=$G_DPWR

[Attr]
ON=14,-64,GROUND NODE
V=$G_DGND

[Attr]
ON=0,0,PACKAGE
V

[Wire]
Pxs=368,120,376,120

[Wire]
Pxs=368,120,368,144

[Comp]
Name=Nand2
Px=376,176
Rot=4

[Attr]
ON=14,-18,PART
V=U39
Style=8192

[Attr]
ON=14,-32,TIMING MODEL
V=D0_GATE

[Attr]
ON=14,-46,I/O MODEL
V=IO_STD

[Attr]
ON=14,-60,MNTYMXDLY
V=0

[Attr]
ON=14,-64,IO_LEVEL
V=0

[Attr]
ON=14,-64,POWER NODE
V=$G_DPWR

[Attr]
ON=14,-64,GROUND NODE
V=$G_DGND

[Attr]
ON=0,0,PACKAGE
V

[Wire]
Pxs=368,176,376,176

[Wire]
Pxs=368,176,368,200

[Comp]
Name=Nand2
Px=376,232
Rot=4

[Attr]
ON=14,-18,PART
V=U41
Style=8192

[Attr]
ON=14,-32,TIMING MODEL
V=D0_GATE

[Attr]
ON=14,-46,I/O MODEL
V=IO_STD

[Attr]
ON=14,-60,MNTYMXDLY
V=0

[Attr]
ON=14,-64,IO_LEVEL
V=0

[Attr]
ON=14,-64,POWER NODE
V=$G_DPWR

[Attr]
ON=14,-64,GROUND NODE
V=$G_DGND

[Attr]
ON=0,0,PACKAGE
V

[Comp]
Name=Animated Digital LED
Px=432,80
Rot=2

[Attr]
ON=11,-14,PART
V=U42
Style=8192

[Attr]
ON=11,0,I/O MODEL
V=IO_STD

[Attr]
ON=11,14,IO_LEVEL
V=0

[Attr]
ON=11,28,POWER NODE
V=$G_DPWR

[Attr]
ON=11,42,GROUND NODE
V=$G_DGND

[Attr]
ON=0,0,PACKAGE
V

[Wire]
Pxs=368,232,376,232

[Wire]
Pxs=368,232,368,256

[Wire]
Pxs=360,48,360,104

[Wire]
Pxs=360,216,376,216

[Wire]
Pxs=360,160,376,160

[Wire]
Pxs=360,160,360,216

[Wire]
Pxs=360,104,376,104

[Wire]
Pxs=360,104,360,160

[Wire]
Pxs=360,48,376,48

[Wire]
Pxs=280,104,344,104

[Wire]
Pxs=344,104,344,144

[Wire]
Pxs=344,144,368,144

[Wire]
Pxs=280,120,336,120

[Wire]
Pxs=336,120,336,200

[Wire]
Pxs=336,200,368,200

[Wire]
Pxs=280,136,328,136

[Wire]
Pxs=328,136,328,256

[Wire]
Pxs=328,256,368,256

[Wire]
Pxs=424,56,432,56

[Comp]
Name=Animated Digital LED
Px=432,136
Rot=2

[Attr]
ON=11,-14,PART
V=U43
Style=8192

[Attr]
ON=11,0,I/O MODEL
V=IO_STD

[Attr]
ON=11,14,IO_LEVEL
V=0

[Attr]
ON=11,28,POWER NODE
V=$G_DPWR

[Attr]
ON=11,42,GROUND NODE
V=$G_DGND

[Attr]
ON=0,0,PACKAGE
V

[Wire]
Pxs=424,112,432,112

[Comp]
Name=Animated Digital LED
Px=432,192
Rot=2

[Attr]
ON=11,-14,PART
V=U44
Style=8192

[Attr]
ON=11,0,I/O MODEL
V=IO_STD

[Attr]
ON=11,14,IO_LEVEL
V=0

[Attr]
ON=11,28,POWER NODE
V=$G_DPWR

[Attr]
ON=11,42,GROUND NODE
V=$G_DGND

[Attr]
ON=0,0,PACKAGE
V

[Wire]
Pxs=424,168,432,168

[Comp]
Name=Animated Digital LED
Px=432,248
Rot=2

[Attr]
ON=11,-14,PART
V=U45
Style=8192

[Attr]
ON=11,0,I/O MODEL
V=IO_STD

[Attr]
ON=11,14,IO_LEVEL
V=0

[Attr]
ON=11,28,POWER NODE
V=$G_DPWR

[Attr]
ON=11,42,GROUND NODE
V=$G_DGND

[Attr]
ON=0,0,PACKAGE
V

[Wire]
Pxs=424,224,432,224

[Comp]
Name=Nand2
Px=536,64
Rot=4

[Attr]
ON=14,-18,PART
V=U46
Style=8192

[Attr]
ON=14,-32,TIMING MODEL
V=D0_GATE

[Attr]
ON=14,-46,I/O MODEL
V=IO_STD

[Attr]
ON=14,-60,MNTYMXDLY
V=0

[Attr]
ON=14,-64,IO_LEVEL
V=0

[Attr]
ON=14,-64,POWER NODE
V=$G_DPWR

[Attr]
ON=14,-64,GROUND NODE
V=$G_DGND

[Attr]
ON=0,0,PACKAGE
V

[Comp]
Name=Nand2
Px=536,120
Rot=4

[Attr]
ON=14,-18,PART
V=U47
Style=8192

[Attr]
ON=14,-32,TIMING MODEL
V=D0_GATE

[Attr]
ON=14,-46,I/O MODEL
V=IO_STD

[Attr]
ON=14,-60,MNTYMXDLY
V=0

[Attr]
ON=14,-64,IO_LEVEL
V=0

[Attr]
ON=14,-64,POWER NODE
V=$G_DPWR

[Attr]
ON=14,-64,GROUND NODE
V=$G_DGND

[Attr]
ON=0,0,PACKAGE
V

[Comp]
Name=Nand2
Px=536,176
Rot=4

[Attr]
ON=14,-18,PART
V=U48
Style=8192

[Attr]
ON=14,-32,TIMING MODEL
V=D0_GATE

[Attr]
ON=14,-46,I/O MODEL
V=IO_STD

[Attr]
ON=14,-60,MNTYMXDLY
V=0

[Attr]
ON=14,-64,IO_LEVEL
V=0

[Attr]
ON=14,-64,POWER NODE
V=$G_DPWR

[Attr]
ON=14,-64,GROUND NODE
V=$G_DGND

[Attr]
ON=0,0,PACKAGE
V

[Comp]
Name=Nand2
Px=536,232
Rot=4

[Attr]
ON=14,-18,PART
V=U49
Style=8192

[Attr]
ON=14,-32,TIMING MODEL
V=D0_GATE

[Attr]
ON=14,-46,I/O MODEL
V=IO_STD

[Attr]
ON=14,-60,MNTYMXDLY
V=0

[Attr]
ON=14,-64,IO_LEVEL
V=0

[Attr]
ON=14,-64,POWER NODE
V=$G_DPWR

[Attr]
ON=14,-64,GROUND NODE
V=$G_DGND

[Attr]
ON=0,0,PACKAGE
V

[Comp]
Name=Animated Digital LED
Px=592,80
Rot=2

[Attr]
ON=11,-14,PART
V=U50
Style=8192

[Attr]
ON=11,0,I/O MODEL
V=IO_STD

[Attr]
ON=11,14,IO_LEVEL
V=0

[Attr]
ON=11,28,POWER NODE
V=$G_DPWR

[Attr]
ON=11,42,GROUND NODE
V=$G_DGND

[Attr]
ON=0,0,PACKAGE
V

[Wire]
Pxs=584,56,592,56

[Comp]
Name=Animated Digital LED
Px=592,136
Rot=2

[Attr]
ON=11,-14,PART
V=U51
Style=8192

[Attr]
ON=11,0,I/O MODEL
V=IO_STD

[Attr]
ON=11,14,IO_LEVEL
V=0

[Attr]
ON=11,28,POWER NODE
V=$G_DPWR

[Attr]
ON=11,42,GROUND NODE
V=$G_DGND

[Attr]
ON=0,0,PACKAGE
V

[Wire]
Pxs=584,112,592,112

[Comp]
Name=Animated Digital LED
Px=592,192
Rot=2

[Attr]
ON=11,-14,PART
V=U52
Style=8192

[Attr]
ON=11,0,I/O MODEL
V=IO_STD

[Attr]
ON=11,14,IO_LEVEL
V=0

[Attr]
ON=11,28,POWER NODE
V=$G_DPWR

[Attr]
ON=11,42,GROUND NODE
V=$G_DGND

[Attr]
ON=0,0,PACKAGE
V

[Wire]
Pxs=584,168,592,168

[Comp]
Name=Animated Digital LED
Px=592,248
Rot=2

[Attr]
ON=11,-14,PART
V=U53
Style=8192

[Attr]
ON=11,0,I/O MODEL
V=IO_STD

[Attr]
ON=11,14,IO_LEVEL
V=0

[Attr]
ON=11,28,POWER NODE
V=$G_DPWR

[Attr]
ON=11,42,GROUND NODE
V=$G_DGND

[Attr]
ON=0,0,PACKAGE
V

[Wire]
Pxs=584,224,592,224

[Comp]
Name=Nand2
Px=704,64
Rot=4

[Attr]
ON=14,-18,PART
V=U54
Style=8192

[Attr]
ON=14,-32,TIMING MODEL
V=D0_GATE

[Attr]
ON=14,-46,I/O MODEL
V=IO_STD

[Attr]
ON=14,-60,MNTYMXDLY
V=0

[Attr]
ON=14,-64,IO_LEVEL
V=0

[Attr]
ON=14,-64,POWER NODE
V=$G_DPWR

[Attr]
ON=14,-64,GROUND NODE
V=$G_DGND

[Attr]
ON=0,0,PACKAGE
V

[Comp]
Name=Nand2
Px=704,120
Rot=4

[Attr]
ON=14,-18,PART
V=U55
Style=8192

[Attr]
ON=14,-32,TIMING MODEL
V=D0_GATE

[Attr]
ON=14,-46,I/O MODEL
V=IO_STD

[Attr]
ON=14,-60,MNTYMXDLY
V=0

[Attr]
ON=14,-64,IO_LEVEL
V=0

[Attr]
ON=14,-64,POWER NODE
V=$G_DPWR

[Attr]
ON=14,-64,GROUND NODE
V=$G_DGND

[Attr]
ON=0,0,PACKAGE
V

[Comp]
Name=Nand2
Px=704,176
Rot=4

[Attr]
ON=14,-18,PART
V=U56
Style=8192

[Attr]
ON=14,-32,TIMING MODEL
V=D0_GATE

[Attr]
ON=14,-46,I/O MODEL
V=IO_STD

[Attr]
ON=14,-60,MNTYMXDLY
V=0

[Attr]
ON=14,-64,IO_LEVEL
V=0

[Attr]
ON=14,-64,POWER NODE
V=$G_DPWR

[Attr]
ON=14,-64,GROUND NODE
V=$G_DGND

[Attr]
ON=0,0,PACKAGE
V

[Comp]
Name=Nand2
Px=704,232
Rot=4

[Attr]
ON=14,-18,PART
V=U57
Style=8192

[Attr]
ON=14,-32,TIMING MODEL
V=D0_GATE

[Attr]
ON=14,-46,I/O MODEL
V=IO_STD

[Attr]
ON=14,-60,MNTYMXDLY
V=0

[Attr]
ON=14,-64,IO_LEVEL
V=0

[Attr]
ON=14,-64,POWER NODE
V=$G_DPWR

[Attr]
ON=14,-64,GROUND NODE
V=$G_DGND

[Attr]
ON=0,0,PACKAGE
V

[Comp]
Name=Animated Digital LED
Px=760,80
Rot=2

[Attr]
ON=11,-14,PART
V=U58
Style=8192

[Attr]
ON=11,0,I/O MODEL
V=IO_STD

[Attr]
ON=11,14,IO_LEVEL
V=0

[Attr]
ON=11,28,POWER NODE
V=$G_DPWR

[Attr]
ON=11,42,GROUND NODE
V=$G_DGND

[Attr]
ON=0,0,PACKAGE
V

[Wire]
Pxs=752,56,760,56

[Comp]
Name=Animated Digital LED
Px=760,136
Rot=2

[Attr]
ON=11,-14,PART
V=U59
Style=8192

[Attr]
ON=11,0,I/O MODEL
V=IO_STD

[Attr]
ON=11,14,IO_LEVEL
V=0

[Attr]
ON=11,28,POWER NODE
V=$G_DPWR

[Attr]
ON=11,42,GROUND NODE
V=$G_DGND

[Attr]
ON=0,0,PACKAGE
V

[Wire]
Pxs=752,112,760,112

[Comp]
Name=Animated Digital LED
Px=760,192
Rot=2

[Attr]
ON=11,-14,PART
V=U60
Style=8192

[Attr]
ON=11,0,I/O MODEL
V=IO_STD

[Attr]
ON=11,14,IO_LEVEL
V=0

[Attr]
ON=11,28,POWER NODE
V=$G_DPWR

[Attr]
ON=11,42,GROUND NODE
V=$G_DGND

[Attr]
ON=0,0,PACKAGE
V

[Wire]
Pxs=752,168,760,168

[Comp]
Name=Animated Digital LED
Px=760,248
Rot=2

[Attr]
ON=11,-14,PART
V=U61
Style=8192

[Attr]
ON=11,0,I/O MODEL
V=IO_STD

[Attr]
ON=11,14,IO_LEVEL
V=0

[Attr]
ON=11,28,POWER NODE
V=$G_DPWR

[Attr]
ON=11,42,GROUND NODE
V=$G_DGND

[Attr]
ON=0,0,PACKAGE
V

[Wire]
Pxs=752,224,760,224

[Comp]
Name=Nand2
Px=848,64
Rot=4

[Attr]
ON=14,-18,PART
V=U62
Style=8192

[Attr]
ON=14,-32,TIMING MODEL
V=D0_GATE

[Attr]
ON=14,-46,I/O MODEL
V=IO_STD

[Attr]
ON=14,-60,MNTYMXDLY
V=0

[Attr]
ON=14,-64,IO_LEVEL
V=0

[Attr]
ON=14,-64,POWER NODE
V=$G_DPWR

[Attr]
ON=14,-64,GROUND NODE
V=$G_DGND

[Attr]
ON=0,0,PACKAGE
V

[Comp]
Name=Nand2
Px=848,120
Rot=4

[Attr]
ON=14,-18,PART
V=U63
Style=8192

[Attr]
ON=14,-32,TIMING MODEL
V=D0_GATE

[Attr]
ON=14,-46,I/O MODEL
V=IO_STD

[Attr]
ON=14,-60,MNTYMXDLY
V=0

[Attr]
ON=14,-64,IO_LEVEL
V=0

[Attr]
ON=14,-64,POWER NODE
V=$G_DPWR

[Attr]
ON=14,-64,GROUND NODE
V=$G_DGND

[Attr]
ON=0,0,PACKAGE
V

[Comp]
Name=Nand2
Px=848,176
Rot=4

[Attr]
ON=14,-18,PART
V=U64
Style=8192

[Attr]
ON=14,-32,TIMING MODEL
V=D0_GATE

[Attr]
ON=14,-46,I/O MODEL
V=IO_STD

[Attr]
ON=14,-60,MNTYMXDLY
V=0

[Attr]
ON=14,-64,IO_LEVEL
V=0

[Attr]
ON=14,-64,POWER NODE
V=$G_DPWR

[Attr]
ON=14,-64,GROUND NODE
V=$G_DGND

[Attr]
ON=0,0,PACKAGE
V

[Comp]
Name=Nand2
Px=848,232
Rot=4

[Attr]
ON=14,-18,PART
V=U65
Style=8192

[Attr]
ON=14,-32,TIMING MODEL
V=D0_GATE

[Attr]
ON=14,-46,I/O MODEL
V=IO_STD

[Attr]
ON=14,-60,MNTYMXDLY
V=0

[Attr]
ON=14,-64,IO_LEVEL
V=0

[Attr]
ON=14,-64,POWER NODE
V=$G_DPWR

[Attr]
ON=14,-64,GROUND NODE
V=$G_DGND

[Attr]
ON=0,0,PACKAGE
V

[Comp]
Name=Animated Digital LED
Px=904,80
Rot=2

[Attr]
ON=11,-14,PART
V=U66
Style=8192

[Attr]
ON=11,0,I/O MODEL
V=IO_STD

[Attr]
ON=11,14,IO_LEVEL
V=0

[Attr]
ON=11,28,POWER NODE
V=$G_DPWR

[Attr]
ON=11,42,GROUND NODE
V=$G_DGND

[Attr]
ON=0,0,PACKAGE
V

[Wire]
Pxs=896,56,904,56

[Comp]
Name=Animated Digital LED
Px=904,136
Rot=2

[Attr]
ON=11,-14,PART
V=U67
Style=8192

[Attr]
ON=11,0,I/O MODEL
V=IO_STD

[Attr]
ON=11,14,IO_LEVEL
V=0

[Attr]
ON=11,28,POWER NODE
V=$G_DPWR

[Attr]
ON=11,42,GROUND NODE
V=$G_DGND

[Attr]
ON=0,0,PACKAGE
V

[Wire]
Pxs=896,112,904,112

[Comp]
Name=Animated Digital LED
Px=904,192
Rot=2

[Attr]
ON=11,-14,PART
V=U68
Style=8192

[Attr]
ON=11,0,I/O MODEL
V=IO_STD

[Attr]
ON=11,14,IO_LEVEL
V=0

[Attr]
ON=11,28,POWER NODE
V=$G_DPWR

[Attr]
ON=11,42,GROUND NODE
V=$G_DGND

[Attr]
ON=0,0,PACKAGE
V

[Wire]
Pxs=896,168,904,168

[Comp]
Name=Animated Digital LED
Px=904,248
Rot=2

[Attr]
ON=11,-14,PART
V=U69
Style=8192

[Attr]
ON=11,0,I/O MODEL
V=IO_STD

[Attr]
ON=11,14,IO_LEVEL
V=0

[Attr]
ON=11,28,POWER NODE
V=$G_DPWR

[Attr]
ON=11,42,GROUND NODE
V=$G_DGND

[Attr]
ON=0,0,PACKAGE
V

[Wire]
Pxs=896,224,904,224

[Wire]
Pxs=280,192,320,192

[Wire]
Pxs=320,192,320,280

[Wire]
Pxs=320,280,360,280

[Wire]
Pxs=360,216,360,280

[Wire]
Pxs=280,208,312,208

[Wire]
Pxs=312,208,312,296

[Wire]
Pxs=312,296,512,296

[Wire]
Pxs=512,48,512,104

[Wire]
Pxs=512,48,536,48

[Wire]
Pxs=512,104,536,104

[Wire]
Pxs=512,104,512,160

[Wire]
Pxs=512,160,536,160

[Wire]
Pxs=512,160,512,216

[Wire]
Pxs=512,216,536,216

[Wire]
Pxs=512,216,512,296

[Wire]
Pxs=680,48,704,48

[Wire]
Pxs=680,48,680,104

[Wire]
Pxs=280,224,304,224

[Wire]
Pxs=304,224,304,304

[Wire]
Pxs=304,304,680,304

[Wire]
Pxs=816,48,848,48

[Wire]
Pxs=816,48,816,104

[Wire]
Pxs=280,240,296,240

[Wire]
Pxs=296,240,296,312

[Wire]
Pxs=296,312,816,312

[Wire]
Pxs=368,88,536,88

[Wire]
Pxs=848,64,848,88

[Wire]
Pxs=704,64,704,88

[Wire]
Pxs=704,88,848,88

[Wire]
Pxs=536,64,536,88

[Wire]
Pxs=536,88,704,88

[Wire]
Pxs=368,144,536,144

[Wire]
Pxs=848,120,848,144

[Wire]
Pxs=704,120,704,144

[Wire]
Pxs=704,144,848,144

[Wire]
Pxs=536,120,536,144

[Wire]
Pxs=536,144,704,144

[Wire]
Pxs=368,256,536,256

[Wire]
Pxs=848,232,848,256

[Wire]
Pxs=704,232,704,256

[Wire]
Pxs=704,256,848,256

[Wire]
Pxs=536,232,536,256

[Wire]
Pxs=536,256,704,256

[Wire]
Pxs=680,216,704,216

[Wire]
Pxs=680,216,680,304

[Wire]
Pxs=680,160,704,160

[Wire]
Pxs=680,160,680,216

[Wire]
Pxs=680,104,704,104

[Wire]
Pxs=680,104,680,160

[Wire]
Pxs=816,104,848,104

[Wire]
Pxs=816,104,816,160

[Wire]
Pxs=816,160,848,160

[Wire]
Pxs=816,160,816,216

[Wire]
Pxs=816,216,848,216

[Wire]
Pxs=816,216,816,312

[Wire]
Pxs=368,200,536,200

[Wire]
Pxs=848,176,848,200

[Wire]
Pxs=704,176,704,200

[Wire]
Pxs=704,200,848,200

[Wire]
Pxs=536,176,536,200

[Wire]
Pxs=536,200,704,200

[Wire]
Pxs=144,96,192,96

[Grid Text]
Text="A1"
Px=168,88
GridSnap=True
JustifyH=Left
JustifyV=Bottom
CBorder=None

[Grid Text]
Text="A3"
Px=144,176
GridSnap=True
JustifyH=Left
JustifyV=Bottom
CBorder=None

[Grid Text]
Text="A4"
Px=120,208
GridSnap=True
JustifyH=Left
JustifyV=Bottom
CBorder=None

[Grid Text]
Text="C"
Px=104,176
GridSnap=True
JustifyH=Left
JustifyV=Bottom
CBorder=None

[Grid Text]
Text="F0"
Px=432,56
GridSnap=True
JustifyH=Left
JustifyV=Bottom
CBorder=None

[Grid Text]
Text="F1"
Px=432,112
GridSnap=True
JustifyH=Left
JustifyV=Bottom
CBorder=None

[Grid Text]
Text="F2"
Px=432,168
GridSnap=True
JustifyH=Left
JustifyV=Bottom
CBorder=None

[Grid Text]
Text="F3"
Px=432,224
GridSnap=True
JustifyH=Left
JustifyV=Bottom
CBorder=None

[Grid Text]
Text="F4"
Px=592,56
GridSnap=True
JustifyH=Left
JustifyV=Bottom
CBorder=None

[Grid Text]
Text="F5"
Px=592,112
GridSnap=True
JustifyH=Left
JustifyV=Bottom
CBorder=None

[Grid Text]
Text="F6"
Px=592,168
GridSnap=True
JustifyH=Left
JustifyV=Bottom
CBorder=None

[Grid Text]
Text="F7"
Px=592,224
GridSnap=True
JustifyH=Left
JustifyV=Bottom
CBorder=None

[Grid Text]
Text="F8"
Px=760,56
GridSnap=True
JustifyH=Left
JustifyV=Bottom
CBorder=None

[Grid Text]
Text="F9"
Px=760,112
GridSnap=True
JustifyH=Left
JustifyV=Bottom
CBorder=None

[Grid Text]
Text="F10"
Px=760,168
GridSnap=True
JustifyH=Left
JustifyV=Bottom
CBorder=None

[Grid Text]
Text="F11"
Px=760,224
GridSnap=True
JustifyH=Left
JustifyV=Bottom
CBorder=None

[Grid Text]
Text="F12"
Px=904,56
GridSnap=True
JustifyH=Left
JustifyV=Bottom
CBorder=None

[Grid Text]
Text="F13"
Px=904,112
GridSnap=True
JustifyH=Left
JustifyV=Bottom
CBorder=None

[Grid Text]
Text="F14"
Px=904,168
GridSnap=True
JustifyH=Left
JustifyV=Bottom
CBorder=None

[Grid Text]
Text="F15"
Px=904,224
GridSnap=True
JustifyH=Left
JustifyV=Bottom
CBorder=None

[Grid Text]
Text="A2"
Px=144,96
GridSnap=True
JustifyH=Left
JustifyV=Bottom
CBorder=None

[Schematic]
CurrentSection 0=0
CurrentSection 1=0
CurrentSection 2=0
CurrentSection 3=0
Splitter.xs=0
Splitter.ys=0
TextQuad=4099
Scale=1
GridUser=10
ShapeGroups="Main","Euro","Polarity","Main1","Main11","Electrolytic","GroundArrow","DeMorgan"
CalcRMS=False
CalcAVG=False
CalcPeak=False
CalcVoltage=True
DisplayMeasure=Last
ShareScales=True

[Tools]
Pos=Top
FILESAVEASOLD=No
BOM=No
FILEPCB=No
PROBE=Yes
SELECT=Yes
PAN=Yes
COMP=Yes
TEXT=Yes
WIRE=Yes
WIRED=Yes
BUS=Yes
GRAPHIC=Yes
FLOWCHART=Yes
LINE=No
ELLIPSE=No
RECT=No
DIAM=No
ARC=No
PIE=No
TRIANGLE=No
STAR=No
LEFTBRK=No
RIGHTBRK=No
BOTHBRK=No
META=No
PARALLELOGRAM=No
FC_PROCESS=No
FC_ALT_PROCESS=No
FC_DECISION=No
FC_DATA=No
FC_PREDEFPROCESS=No
FC_INTERNALSTORAGE=No
FC_DOCUMENT=No
FC_MULTIDOCUMENT=No
FC_TERMINATOR=No
FC_PREPARATION=No
FC_MANUALINPUT=No
FC_MANUALOPERATION=No
FC_CONNECTOR=No
FC_OFFPAGECONNECTOR=No
FC_PUNCHCARD=No
FC_PUNCHEDTAPE=No
FC_SUMMING_JUNCTION=No
FC_OR=No
FC_COLLATE=No
FC_SORT=No
FC_EXTRACT=No
FC_MERGE=No
FC_STORED_DATA=No
FC_DELAY=No
FC_SAS=No
FC_MAGNETIC_DISK=No
FC_DAS=No
FC_DISPLAY=No
SPREAD_SHEET=Yes
POLYCLOS=No
POLYOPEN=No
FLAG=Yes
INFO=Yes
HELP=Yes
HELP_SPICE=No
LINK=Yes
CHECK=Yes
REGION_ENABLE=Yes
TITLE_BLOCK=Yes
DIGTRC=No
DIGTRC2=No
BUILD_COMMAND=Yes
DIGALL=No
GRIDTEXT=Yes
COMPTEXT=Yes
NODE=Yes
MEASURED=Yes
NODEV=Yes
CURRENT=Yes
POWER=Yes
CONDITIN=Yes
PIN=Yes
CONNWARN=Yes
CROSS=No
GRID=Yes
BORDER=Yes
BORDERONE=Yes
TITLE=Yes
RUBBER=Yes
PROPERTY=Yes
STEP=Yes
MIRROR=Yes
ROTATE=Yes
FLIPY=Yes
FLIPX=Yes
CIR_MAKEMACRO=No
CLEARCUTWIRE=No
CLIPBOARDCIRPAGE2BMM=No
FINDCOMP=Yes
FIND=Yes
REPEAT=No
REPLACE=No
MODEL=Yes
CIR2CKT=No
ATTDISP=No
ENABLE=Yes
DISABLE=Yes
ENABLE_WITH=Yes
TOFRONT=Yes
TOBACK=Yes
SELNEXT=No
PAGEADD=No
PAGEADDTEXT=No
ADDSECTION=No
PAGEDEL=No
ZOOMIN=Yes
ZOOMOUT=Yes
AUTOSCALECIR=Yes
GOTOFLAG=No
UPLEVEL=Yes
COLOR=Yes
FONT=Yes
STYLE=Yes
DM_LAST=No
DM_RMS=No
DM_AVG=No
DM_PEAK=No
GRID_NONE=No
GRID_NORMAL=No
GRID_BOLD_5=No
GRID_BOLD_6=No
GRID_BOLD_USER=No
GRAPH_PAPER=No
SPLITCIRTEXTH=No
SPLITCIRTEXTV=No
SPACE_SPLITTERS_EVENLY=No
NORMALCIR=No
RENAMEDEFINE=No
RENAMECMP=No
ATTALIGN=No
RESETNODEPOS=No
FIT2STANDARD=No
NODESNAP=No
MOVETEXT=No
TEXTINC=No
TOGGLETEXT=No
TOGGLEMODE=No
TOLERANCE=No
ALIGNAB=No
ALIGNLEFT=No
ALIGNCENTER=No
ALIGNRIGHT=No
ALIGNTOP=No
ALIGNMIDDLES=No
ALIGNBOTTOM=No

[Section]
Index=0
Name="circuit3"
Type=Main
Enable=True
CurrentPage 0=0
CurrentPage 1=0
CurrentPage 2=0
CurrentPage 3=0
TabSize 0=425
TabSize 1=425
TabSize 2=425
TabSize 3=425

[Page]
Index=0
Section=0
Print=True
Enable=True
Name=Main
PrinterScale=1
Scale 0=1
Scale 1=1
Scale 2=1
Scale 3=1
Px=140,98
WinBackGround Color=#FFFFFF
Select Color=#FF0000
Anchor Color=#000000
Select Box Color=#000080
Grid Text Color=Height=-12,FStyle=0,Color=#0000FF,Name=Verdana
Grid Text RTF=False
Grid Text Angle=0
Grid Text GridSnap=True
Grid Text PinIt=False
Grid Text JustifyH=Left
Grid Text JustifyV=Bottom
Grid GradientColor2=None
Grid OutlineThickness=1
Grid OutlineColor=None
Component Color=#0000FF
Attribute Text=Height=-12,FStyle=0,Color=#008000,Name=Verdana
Wire Color=#008000
Bus Color=#008000
Pin Connection=Height=-10,FStyle=0,Color=#FF0000,Name=Arial
Pin Marker Color=#008000
Node Number=Height=-11,FStyle=0,Color=#FF00FF,Name=Arial
Node Voltage Color=Height=-11,FStyle=0,Color=#000000,Name=Arial
Dynamic AC Voltage Color=#E4E4E4
Text Banner Text=Height=-15,FStyle=0,Color=#800000,Name=Arial
Title Block Background=#C0C0C0
Current=Height=-11,FStyle=0,Color=#0000FF,Name=Arial
Power/Condition=Height=-11,FStyle=0,Color=#FF0000,Name=Arial
Digital Path Color=#FF0000
Title Block Border=#000000
Disabled	Color=#C0C0C0
Search Color=#FFFF00
Grid Color=#000000
Graph Paper=#E4E4E4
Digital 0 Color=#000000
Digital R Color=#FFFF00
Digital F Color=#FFFF00
Digital 1 Color=#FF0000
Digital X Color=#C0C0C0
Digital Z Color=#808080
Block Select Color=#51F998

[Page]
Index=1
Section=0
Type=Text
Print=False
Enable=True
Name=Text
Font=Height=-15,FStyle=0,Color=#000000,Name=Courier New
Comment Color=#008000
WinBackGround Color=#FFFFFF
Disabled	Color=#C0C0C0
KeyWord Color=#0000FF
Error	Color=#FF0000
Search Color=#FFFF00

[Page]
Index=2
Section=0
Type=Text
Print=False
Enable=True
Name=Models
Font=Height=-15,FStyle=0,Color=#000000,Name=Courier New
Comment Color=#008000
WinBackGround Color=#FFFFFF
Disabled	Color=#C0C0C0
KeyWord Color=#0000FF
Error	Color=#FF0000
Search Color=#FFFF00

[Page]
Index=3
Section=0
Type=Info
Print=False
Enable=True
Name=Info
Font=Height=-15,FStyle=0,Color=#000000,Name=Courier New
Comment Color=#008000
WinBackGround Color=#FFFFFF
Disabled	Color=#C0C0C0
KeyWord Color=#0000FF
Error	Color=#FF0000
Search Color=#FFFF00

[Text Area]
Section=0
Page=1
Text=
Text=.define REPEAT7
Text=+0us 0
Text=+1us F
Text=+Repeat 15 Times 
Text=++1us Decr by 1
Text=+Endrepeat
Text=++1us 0
Text=+Repeat 15 Times
Text=++1us Incr by 1
Text=+Endrepeat
Text=++1us 0

[Text Area]
Section=0
Page=2
Text=* Schematic File
Text=*
Text=* Syntax:
Text=* .MODEL <model name> [AKO:<reference model name>] <ModelType>
Text=* +([<parameter name>=<value>][LOT[/#][/GAUSS|/UNIFORM|/WCASE]=[<tol>[%]] |[-<low>%,<high>%]][DEV[/#][/GAUSS|/UNIFORM|/WCASE]=[<tol>[%]]...)
Text=* ModelType must be one of OPA,D,NPN,NMOS,NJF,PUL,SIN,TRN,CORE,GASFET,VSWITCH,ISWITCH,CAP,IND,RES,PNP,PMOS,PJF,DOUTPUT,DINPUT,UADC,UDAC,UGATE,UTGATE,UEFF,UGFF,UDLY,UPLD,UROM,URAM,UBGT,UIO,LPNP,NIGBT,I,V
Text=*
Text=*Examples:
Text=* .MODEL 2N2222A NPN(BF=150 IS=1E-14)
Text=* .model M1 NMOS(KP=2.5E-5 VTO=1.345 CGDO=14.67p CGBO=4.566p)
Text=* .MODEL DK D(IS=1E-18)
Text=* .model 2N2222A AKO:2N2222 NPN (BF=55 ISE=10F)
Text=* .Model BJT1 NPN (RE=12 LOT/1/GAUSS=30% DEV/2/UNIFORM=2%)
Text=*
Text=* A .cir file is typically found in the data directory
Text=*

[InfoPage]
InfoPage=True
Warnings=True
System=True
Defines=True
Array=True
Model=True
Measure=True
MacroSubckt=True
NotUsed=True
ComponentCounts=True
VariablizePaths=False
DontShowPaths=False
SimulationLog=True

[Transient]
WinID=1
Window Placement=2,3, -1,-1, -8,-31, 26,26,1227,359
Font=Height=-19,FStyle=0,Color=#0000FF,Name=Arial
WinBackGround Color=#FFFFFF
Select Color=#FF0000
Anchor Color=#000000
Select Box Color=#000080
Title
AutoTitle=Yes
Grid Color=#808080
Grid Weight=1
Grid Pattern=Dot6
Tracker Foreground=Height=-15,FStyle=0,Color=#000000,Name=Arial
Tracker Background=#FFFF00
Baseline color=#0000FF
BaseLine Weight=1
CurveFit color=#FF0000
CurveFit Weight=2
CurveFit Pattern=Dash
Static Grids=False
PlusMark=False
MinorLog25=Off
LabelMinor=Off
DataPoints=False
Token=False
Ruler=False
XAxisGrids=True
YAxisGrids=True
MinorLogGrids=True
BaseLine=False
AlignZ=True
Align Cursors=True
TagFormatX=3
TagFormatY=3
FormulaFormat=2
EndMode=SCALE
Graph Background=#FFFFFF
Tracker Intercept=False
Tracker Mouse=True
Tracker Cursor=True
Tracker Cursor BranchInfo=False
Horizontal Cursor=False
Same Y Scales=Yes
Enable X Scaling=True
Enable Y Scaling=True
Keep X Scales The Same=True
Number of Grids X=5
Number of Grids Y=5
Cursor Select Color Primary=#C0C0C0
Cursor Select Color Secondary=#FF0000
Data Point Labels Color Fore=Height=-15,FStyle=0,Color=#000000,Name=Arial
Data Point Labels Color Back=#FFFF00
OperPoint=True
OperPointOnly=False
AutoScaleRanges=True
FixedTimeStep=False
DoPSS=False
PSS_Periods="1"
PSS_Iterations="5"
PSS_Error="1u"
PSS_ShowPlots=True
FFT_NPts="8192"
FFT_IncludeDCHarmonic=False
FFT_AutoScale_Harmonics="10"
PrinterAutoTile=No
PrinterBlackBorder=No
MonMaxShow=16
MonPageWidth=66
MonPlotWidth=21
MonExprXWidth=142
MonExprYWidth=367
MonRangeXWidth=90
MonRangeYWidth=90
AnimateWait=None
AnimateWaitTime=500
AnimatePressAfter=0
Save_For_Future=No
Reduce_Display=1
Reduce_Save=1
Reduce_ThrowDataOut=0
Num Out Header Left
Num Out Header Center="$MC\n$user\n$company\n$Analysis of $name\n$date $time"
Num Out Header Right
Num Out Delimiter=32
Num Out Write=True
Num Out Write Main Header=True
Num Out Write Limits=True
Num Out Write Branch Header=True
Num Out Write Models=False
Num Out Write Zero Models=True
Num Out Write Undefined Models=True
Num Out Write Operating Point=True
Num Out Write Measurement Values=True
Num Out Write Tolerance Detail=True
Num Out Write Values=True
Num Out Write Waveform Header=True
Num Out Allow Dup Y Expr=False
Num Out Low="TSTART"
Num Out High="TMAX"
Num Out Font=Height=-15,FStyle=0,Color=#000000,Name=Courier New
Num Out Format=3
Num Out HideNonSelected=False
Num Out UseActualDataPoints=False
AutoSaveWave=False
Wave Format=16E
State Variables Format=5E
Print Individual Pages=False

[Tools]
Pos=Top
SELECT=Yes
PAN=Yes
GRAPHIC=Yes
LINE=No
ELLIPSE=No
RECT=No
DIAM=No
ARC=No
PIE=No
TRIANGLE=No
STAR=No
LEFTBRK=No
RIGHTBRK=No
BOTHBRK=No
META=No
PARALLELOGRAM=No
POLYCLOS=No
POLYOPEN=No
SCALE=Yes
CURSOR=Yes
MEASUREH=Yes
MEASUREV=Yes
TAG=Yes
PTAG=Yes
TEXT=Yes
PROPERTY=Yes
START=Yes
STOP=Yes
PAUSE=Yes
RESUME=No
DATAPTS=Yes
TOKENS=Yes
RULER=Yes
PLUS=Yes
XAXIS=Yes
YAXIS=Yes
MINORLOG=Yes
LOG25=Yes
BASELINE=Yes
HORIZCUR=Yes
GOTOX=Yes
GOTOY=Yes
GOTOPERF=Yes
GOTOBRNC=Yes
CLEAR_ACCUMULATED=Yes
PDELETE_ALL_PLOTS=Yes
NEXT=Yes
NEXTIN=Yes
PEAK=Yes
VALLEY=Yes
HIGH=Yes
LOW=Yes
INFLECTN=Yes
GHIGH=Yes
GLOW=Yes
BOTTOM=Yes
TOP=Yes
WAVEFORMBUFFER=Yes
AOUTPUT=Yes
PKEY=Yes
ENXSCALE=Yes
ENYSCALE=Yes
ZOOMIN=Yes
ZOOMOUT=Yes
AUTOSCALE=Yes
RESTORESCALE=No
COLOR=Yes
FONT=Yes
STYLE=Yes
SELNEXT=No
NORMALIZE=No
NORMALIZE_MIN=No
NORMALIZE_MAX=No
ADD_TAG_LEFT=No
ADD_TAG_RIGHT=No
ADD_HORZ_TAG=No
ADD_VERT_TAG=No
ALIGN_CURSORS=No
ALIGN_CURSORSZ=No
CURSORTOCLIPBOARD=No
TRACKER_CURSOR=No
TRACKER_CURSOR_BRANCHINFO=No
TRACKER_INTERCEPT=No
TRACKER_MOUSE=No
TOFRONT=Yes
TOBACK=Yes
SPLITCIRTEXTH=No
SPLITCIRTEXTV=No
SPACE_SPLITTERS_EVENLY=No
NORMALCIR=No
LABEL_WAVEFORM=No
LABEL_DATA_POINTS=No
WFB_ADD_TO_LIMITS=No
ENVELOPE=No
SAMEYSCALES=No
KEEPXSCALESTHESAME=No
CURVEFIT=No
ADD_MARKER=No
SHOWWATCH=No
BP=No
TOGGLEMODE=No
REMOVEALLTEXT=No
AUTOSCALEX=No
LABELALLMINOR=No
ALIGNLEFT=No
ALIGNCENTER=No
ALIGNRIGHT=No
ALIGNTOP=No
ALIGNMIDDLES=No
ALIGNBOTTOM=No

[APage]
Analysis=Transient
Name="MAIN"

[Monte Carlo Options]
Analysis=Transient
Status=Off
Zero Tolerance=False
Eliminate Outliers=False
Distribution=Normal
Number of Runs=10
Seed=0

[Limits]
Analysis=Transient
TMax=32u
TStart=0
TStep=0
NPts=51
Temp=27
RetraceRuns=1
StateVar=Zero
RunOption=Normal
Temperature Type=Linear
Accumulate Plots=False
IgnoreExprErrors=False

[WaveForm]
Analysis=Transient
Plt=1
AliasID=1
XExp=T
YExp=d(C)
XRng=3.2e-5
YRng=Auto
Options=LINEARX,LINEARY
Range Grid X=6.4e-6
Enable=Enable
Line Color=#0000FF
Text Color=#0000FF
Rainbow=False
VFmtX=3
VFmtY=3
ScaleFactorX="None"
ScaleFactorY="None"
ScaleUnitsX="Auto"
ScaleUnitsY="Auto"
SFmtX=2
SFmtY=2
NOFmtX=3E
NOFmtY=3E

[WaveForm]
Analysis=Transient
Plt=1
AliasID=2
XExp=T
YExp=d(A1)
XRng=3.2e-5
YRng=Auto
Options=LINEARX,LINEARY
Range Grid X=6.4e-6
Enable=Enable
Line Color=#FF0000
Text Color=#FF0000
Rainbow=False
VFmtX=3
VFmtY=3
ScaleFactorX="None"
ScaleFactorY="None"
ScaleUnitsX="Auto"
ScaleUnitsY="Auto"
SFmtX=2
SFmtY=2
NOFmtX=3E
NOFmtY=3E

[WaveForm]
Analysis=Transient
Plt=1
AliasID=3
XExp=T
YExp=d(A2)
XRng=3.2e-5
YRng=Auto
Options=LINEARX,LINEARY
Range Grid X=6.4e-6
Enable=Enable
Line Color=#008000
Text Color=#008000
Rainbow=False
VFmtX=3
VFmtY=3
ScaleFactorX="None"
ScaleFactorY="None"
ScaleUnitsX="Auto"
ScaleUnitsY="Auto"
SFmtX=2
SFmtY=2
NOFmtX=3E
NOFmtY=3E

[WaveForm]
Analysis=Transient
Plt=1
AliasID=4
XExp=T
YExp=d(A3)
XRng=3.2e-5
YRng=Auto
Options=LINEARX,LINEARY
Range Grid X=6.4e-6
Enable=Enable
Line Color=#FF00FF
Text Color=#FF00FF
Rainbow=False
VFmtX=3
VFmtY=3
ScaleFactorX="None"
ScaleFactorY="None"
ScaleUnitsX="Auto"
ScaleUnitsY="Auto"
SFmtX=2
SFmtY=2
NOFmtX=3E
NOFmtY=3E

[WaveForm]
Analysis=Transient
Plt=1
AliasID=5
XExp=T
YExp=d(A4)
XRng=3.2e-5
YRng=Auto
Options=LINEARX,LINEARY
Range Grid X=6.4e-6
Enable=Enable
Line Color=#000000
Text Color=#000000
Rainbow=False
VFmtX=3
VFmtY=3
ScaleFactorX="None"
ScaleFactorY="None"
ScaleUnitsX="Auto"
ScaleUnitsY="Auto"
SFmtX=2
SFmtY=2
NOFmtX=3E
NOFmtY=3E

[WaveForm]
Analysis=Transient
Plt=1
AliasID=6
XExp=T
YExp=d(F0)
XRng=3.2e-5
YRng=Auto
Options=LINEARX,LINEARY
Range Grid X=6.4e-6
Enable=Enable
Line Color=#0000FF
Text Color=#0000FF
Rainbow=False
VFmtX=3
VFmtY=3
ScaleFactorX="None"
ScaleFactorY="None"
ScaleUnitsX="Auto"
ScaleUnitsY="Auto"
SFmtX=2
SFmtY=2
NOFmtX=3E
NOFmtY=3E

[WaveForm]
Analysis=Transient
Plt=1
AliasID=7
XExp=T
YExp=d(F1)
XRng=3.2e-5
YRng=Auto
Options=LINEARX,LINEARY
Range Grid X=6.4e-6
Enable=Enable
Line Color=#FF0000
Text Color=#FF0000
Rainbow=False
VFmtX=3
VFmtY=3
ScaleFactorX="None"
ScaleFactorY="None"
ScaleUnitsX="Auto"
ScaleUnitsY="Auto"
SFmtX=2
SFmtY=2
NOFmtX=3E
NOFmtY=3E

[WaveForm]
Analysis=Transient
Plt=1
AliasID=21
XExp=T
YExp=d(F2)
XRng=3.2e-5
YRng=Auto
Options=LINEARX,LINEARY
Range Grid X=6.4e-6
Enable=Enable
Line Color=#008000
Text Color=#008000
Rainbow=False
VFmtX=3
VFmtY=3
ScaleFactorX="None"
ScaleFactorY="None"
ScaleUnitsX="Auto"
ScaleUnitsY="Auto"
SFmtX=2
SFmtY=2
NOFmtX=3E
NOFmtY=3E

[WaveForm]
Analysis=Transient
Plt=1
AliasID=8
XExp=T
YExp=d(F3)
XRng=3.2e-5
YRng=Auto
Options=LINEARX,LINEARY
Range Grid X=6.4e-6
Enable=Enable
Line Color=#008000
Text Color=#008000
Rainbow=False
VFmtX=3
VFmtY=3
ScaleFactorX="None"
ScaleFactorY="None"
ScaleUnitsX="Auto"
ScaleUnitsY="Auto"
SFmtX=2
SFmtY=2
NOFmtX=3E
NOFmtY=3E

[WaveForm]
Analysis=Transient
Plt=1
AliasID=9
XExp=T
YExp=d(F4)
XRng=3.2e-5
YRng=Auto
Options=LINEARX,LINEARY
Range Grid X=6.4e-6
Enable=Enable
Line Color=#FF00FF
Text Color=#FF00FF
Rainbow=False
VFmtX=3
VFmtY=3
ScaleFactorX="None"
ScaleFactorY="None"
ScaleUnitsX="Auto"
ScaleUnitsY="Auto"
SFmtX=2
SFmtY=2
NOFmtX=3E
NOFmtY=3E

[WaveForm]
Analysis=Transient
Plt=1
AliasID=10
XExp=T
YExp=d(F5)
XRng=3.2e-5
YRng=Auto
Options=LINEARX,LINEARY
Range Grid X=6.4e-6
Enable=Enable
Line Color=#000000
Text Color=#000000
Rainbow=False
VFmtX=3
VFmtY=3
ScaleFactorX="None"
ScaleFactorY="None"
ScaleUnitsX="Auto"
ScaleUnitsY="Auto"
SFmtX=2
SFmtY=2
NOFmtX=3E
NOFmtY=3E

[WaveForm]
Analysis=Transient
Plt=1
AliasID=11
XExp=T
YExp=d(F6)
XRng=3.2e-5
YRng=Auto
Options=LINEARX,LINEARY
Range Grid X=6.4e-6
Enable=Enable
Line Color=#0000FF
Text Color=#0000FF
Rainbow=False
VFmtX=3
VFmtY=3
ScaleFactorX="None"
ScaleFactorY="None"
ScaleUnitsX="Auto"
ScaleUnitsY="Auto"
SFmtX=2
SFmtY=2
NOFmtX=3E
NOFmtY=3E

[WaveForm]
Analysis=Transient
Plt=1
AliasID=12
XExp=T
YExp=d(F7)
XRng=3.2e-5
YRng=Auto
Options=LINEARX,LINEARY
Range Grid X=6.4e-6
Enable=Enable
Line Color=#FF0000
Text Color=#FF0000
Rainbow=False
VFmtX=3
VFmtY=3
ScaleFactorX="None"
ScaleFactorY="None"
ScaleUnitsX="Auto"
ScaleUnitsY="Auto"
SFmtX=2
SFmtY=2
NOFmtX=3E
NOFmtY=3E

[WaveForm]
Analysis=Transient
Plt=1
AliasID=13
XExp=T
YExp=d(F8)
XRng=3.2e-5
YRng=Auto
Options=LINEARX,LINEARY
Range Grid X=6.4e-6
Enable=Enable
Line Color=#008000
Text Color=#008000
Rainbow=False
VFmtX=3
VFmtY=3
ScaleFactorX="None"
ScaleFactorY="None"
ScaleUnitsX="Auto"
ScaleUnitsY="Auto"
SFmtX=2
SFmtY=2
NOFmtX=3E
NOFmtY=3E

[WaveForm]
Analysis=Transient
Plt=1
AliasID=14
XExp=T
YExp=d(F9)
XRng=3.2e-5
YRng=Auto
Options=LINEARX,LINEARY
Range Grid X=6.4e-6
Enable=Enable
Line Color=#FF00FF
Text Color=#FF00FF
Rainbow=False
VFmtX=3
VFmtY=3
ScaleFactorX="None"
ScaleFactorY="None"
ScaleUnitsX="Auto"
ScaleUnitsY="Auto"
SFmtX=2
SFmtY=2
NOFmtX=3E
NOFmtY=3E

[WaveForm]
Analysis=Transient
Plt=1
AliasID=15
XExp=T
YExp=d(F10)
XRng=3.2e-5
YRng=Auto
Options=LINEARX,LINEARY
Range Grid X=6.4e-6
Enable=Enable
Line Color=#000000
Text Color=#000000
Rainbow=False
VFmtX=3
VFmtY=3
ScaleFactorX="None"
ScaleFactorY="None"
ScaleUnitsX="Auto"
ScaleUnitsY="Auto"
SFmtX=2
SFmtY=2
NOFmtX=3E
NOFmtY=3E

[WaveForm]
Analysis=Transient
Plt=1
AliasID=16
XExp=T
YExp=d(F11)
XRng=3.2e-5
YRng=Auto
Options=LINEARX,LINEARY
Range Grid X=6.4e-6
Enable=Enable
Line Color=#0000FF
Text Color=#0000FF
Rainbow=False
VFmtX=3
VFmtY=3
ScaleFactorX="None"
ScaleFactorY="None"
ScaleUnitsX="Auto"
ScaleUnitsY="Auto"
SFmtX=2
SFmtY=2
NOFmtX=3E
NOFmtY=3E

[WaveForm]
Analysis=Transient
Plt=1
AliasID=17
XExp=T
YExp=d(F12)
XRng=3.2e-5
YRng=Auto
Options=LINEARX,LINEARY
Range Grid X=6.4e-6
Enable=Enable
Line Color=#FF0000
Text Color=#FF0000
Rainbow=False
VFmtX=3
VFmtY=3
ScaleFactorX="None"
ScaleFactorY="None"
ScaleUnitsX="Auto"
ScaleUnitsY="Auto"
SFmtX=2
SFmtY=2
NOFmtX=3E
NOFmtY=3E

[WaveForm]
Analysis=Transient
Plt=1
AliasID=18
XExp=T
YExp=d(F13)
XRng=3.2e-5
YRng=Auto
Options=LINEARX,LINEARY
Range Grid X=6.4e-6
Enable=Enable
Line Color=#008000
Text Color=#008000
Rainbow=False
VFmtX=3
VFmtY=3
ScaleFactorX="None"
ScaleFactorY="None"
ScaleUnitsX="Auto"
ScaleUnitsY="Auto"
SFmtX=2
SFmtY=2
NOFmtX=3E
NOFmtY=3E

[WaveForm]
Analysis=Transient
Plt=1
AliasID=19
XExp=T
YExp=d(F14)
XRng=3.2e-5
YRng=Auto
Options=LINEARX,LINEARY
Range Grid X=6.4e-6
Enable=Enable
Line Color=#FF00FF
Text Color=#FF00FF
Rainbow=False
VFmtX=3
VFmtY=3
ScaleFactorX="None"
ScaleFactorY="None"
ScaleUnitsX="Auto"
ScaleUnitsY="Auto"
SFmtX=2
SFmtY=2
NOFmtX=3E
NOFmtY=3E

[WaveForm]
Analysis=Transient
Plt=1
AliasID=20
XExp=T
YExp=d(F15)
XRng=3.2e-5
YRng=Auto
Options=LINEARX,LINEARY
Range Grid X=6.4e-6
Enable=Enable
Line Color=#000000
Text Color=#000000
Rainbow=False
VFmtX=3
VFmtY=3
ScaleFactorX="None"
ScaleFactorY="None"
ScaleUnitsX="Auto"
ScaleUnitsY="Auto"
SFmtX=2
SFmtY=2
NOFmtX=3E
NOFmtY=3E

[Limits]
Analysis=DynamicAC
FirstValueDisplay=Mag
SecondValueDisplay=PhaseDeg
PlaceText=True

[Limits]
Analysis=DynamicDC
PlaceText=True

[Pane]
Analysis=Transient
CurrentPage 0="MAIN"

[Pane]
Analysis=AC

[Pane]
Analysis=DC

[Pane]
Analysis=HmDistortion

[Pane]
Analysis=ImDistortion

[Pane]
Analysis=Stability

[Watch]
Analysis=Transient
Format=3
ExprPercentWidth=80

[WCTolerance]
Var Width=100
Nominal Width=72
Tol Width=152
Tol Name=Drift
Col Width Neq=50
Col Width Pos=50
Col Width Rnd=50

[WCFiles]
UseFile=<Library>Standard.tlib
AVAILABLE_FILE=<Library>Standard.tlib

[OPMethods]
Analysis=Transient
Standard Newton-Raphson=0,0
Source Stepping=0,0
Diagonal Gmin Stepping=0,0
Junction Gmin Stepping=0,0
Pseudo Transient=0,0

[OPMethods]
Analysis=AC
Standard Newton-Raphson=0,0
Source Stepping=0,0
Diagonal Gmin Stepping=0,0
Junction Gmin Stepping=0,0
Pseudo Transient=0,0

[OPMethods]
Analysis=DC
Standard Newton-Raphson=0,0
Source Stepping=0,0
Diagonal Gmin Stepping=0,0
Junction Gmin Stepping=0,0
Pseudo Transient=0,0

[OPMethods]
Analysis=HmDistortion
Standard Newton-Raphson=0,0
Source Stepping=0,0
Diagonal Gmin Stepping=0,0
Junction Gmin Stepping=0,0
Pseudo Transient=0,0

[OPMethods]
Analysis=ImDistortion
Standard Newton-Raphson=0,0
Source Stepping=0,0
Diagonal Gmin Stepping=0,0
Junction Gmin Stepping=0,0
Pseudo Transient=0,0

[OPMethods]
Analysis=Stability
Standard Newton-Raphson=0,0
Source Stepping=0,0
Diagonal Gmin Stepping=0,0
Junction Gmin Stepping=0,0
Pseudo Transient=0,0

[OPMethods]
Analysis=DynamicAC
Standard Newton-Raphson=0,0
Source Stepping=0,0
Diagonal Gmin Stepping=0,0
Junction Gmin Stepping=0,0
Pseudo Transient=0,0

[OPMethods]
Analysis=DynamicDC
Standard Newton-Raphson=0,0
Source Stepping=0,0
Diagonal Gmin Stepping=0,0
Junction Gmin Stepping=0,0
Pseudo Transient=0,0
